\contentsline {section}{\numberline {1}Introduccion al proyecto}{1}{section.1}
\contentsline {section}{\numberline {2}Secci\IeC {\'o}n Uno}{1}{section.2}
\contentsline {subsection}{\numberline {2.1}A. Elementary calculations }{1}{subsection.2.1}
\contentsline {subsection}{\numberline {2.2}B. Creating a Matrix}{1}{subsection.2.2}
\contentsline {subsection}{\numberline {2.3}C. Matrix Arithmetic}{2}{subsection.2.3}
\contentsline {subsection}{\numberline {2.4}D. Solving Systems of Linear Equations}{2}{subsection.2.4}
\contentsline {subsection}{\numberline {2.5}E.Integrating Differential Equations}{3}{subsection.2.5}
\contentsline {subsection}{\numberline {2.6}F. Producing Graphical Output}{4}{subsection.2.6}
\contentsline {section}{\numberline {3} Segunda Seccion:}{5}{section.3}
\contentsline {subsection}{\numberline {3.1} Resumen}{5}{subsection.3.1}
\contentsline {section}{\numberline {4}Tercera Secci\IeC {\'o}n:}{6}{section.4}
\contentsline {subsection}{\numberline {4.1}Programa}{6}{subsection.4.1}
\contentsline {section}{\numberline {5}Repositorio}{9}{section.5}
